out1 = {
  s0: Double
  s1: Double
  s2: Double
  s3: Double
  s4: Double
  s5: Double
  s6: Double
  s7: Double
  s8: Double
}


state1 = {
  s0: Double
  s1: Double
  s2: Double
  s3: Double
  s4: Double
  s5: Double
  s6: Double
  s7: Double
  s8: Double
  y0: Double
  y1: Double
  y2: Double
  y3: Double
  y4: Double
}


state2 = {
  s0: Double
  s1: Double
  s2: Double
  s3: Double
  s4: Double
  s5: Double
  s6: Double
  s7: Double
  s8: Double
  y0: Double
  y1: Double
  y2: Double
  y3: Double
  y4: Double
}

state3 = {
  s0: Double
  s1: Double
  s2: Double
  s3: Double
  s4: Double
  s5: Double
  s6: Double
  s7: Double
  s8: Double
  y0: Double
  y1: Double
  y2: Double
  y3: Double
  y4: Double
}

state4 = {
  s0: Double
  s1: Double
  s2: Double
  s3: Double
  s4: Double
  s5: Double
  s6: Double
  s7: Double
  s8: Double
  y0: Double
  y1: Double
  y2: Double
  y3: Double
  y4: Double
}

state5 = {
  s0: Double
  s1: Double
  s2: Double
  s3: Double
  s4: Double
  s5: Double
  s6: Double
  s7: Double
  s8: Double
  y0: Double
  y1: Double
  y2: Double
  y3: Double
  y4: Double
}

state6 = {
  s0: Double
  s1: Double
  s2: Double
  s3: Double
  s4: Double
  s5: Double
  s6: Double
  s7: Double
  s8: Double
  y0: Double
  y1: Double
  y2: Double
  y3: Double
  y4: Double
}

state7 = {
  s0: Double
  s1: Double
  s2: Double
  s3: Double
  s4: Double
  s5: Double
  s6: Double
  s7: Double
  s8: Double
  y0: Double
  y1: Double
  y2: Double
  y3: Double
  y4: Double
}

state8 = {
  s0: Double
  s1: Double
  s2: Double
  s3: Double
  s4: Double
  s5: Double
  s6: Double
  s7: Double
  s8: Double
  y0: Double
  y1: Double
  y2: Double
  y3: Double
  y4: Double
}

state9 = {
  s0: Double
  s1: Double
  s2: Double
  s3: Double
  s4: Double
  s5: Double
  s6: Double
  s7: Double
  s8: Double
  y0: Double
  y1: Double
  y2: Double
  y3: Double
  y4: Double
}
