out1 = {
  s0: Double
  s1: Double
  s2: Double
}


state1 = {
  s0: Double
  s1: Double
  s2: Double
  y0: Double
  y1: Double
}


state2 = {
  s0: Double
  s1: Double
  s2: Double
  y0: Double
  y1: Double
}

state3 = {
  s0: Double
  s1: Double
  s2: Double
  y0: Double
  y1: Double
}
